\relax 
\providecommand\hyper@newdestlabel[2]{}
\catcode `"\active 
\providecommand\HyperFirstAtBeginDocument{\AtBeginDocument}
\HyperFirstAtBeginDocument{\ifx\hyper@anchor\@undefined
\global\let\oldcontentsline\contentsline
\gdef\contentsline#1#2#3#4{\oldcontentsline{#1}{#2}{#3}}
\global\let\oldnewlabel\newlabel
\gdef\newlabel#1#2{\newlabelxx{#1}#2}
\gdef\newlabelxx#1#2#3#4#5#6{\oldnewlabel{#1}{{#2}{#3}}}
\AtEndDocument{\ifx\hyper@anchor\@undefined
\let\contentsline\oldcontentsline
\let\newlabel\oldnewlabel
\fi}
\fi}
\global\let\hyper@last\relax 
\gdef\HyperFirstAtBeginDocument#1{#1}
\providecommand\HyField@AuxAddToFields[1]{}
\providecommand\HyField@AuxAddToCoFields[2]{}
\bibstyle{ProdSeminar}
\select@language{ngerman}
\@writefile{toc}{\select@language{ngerman}}
\@writefile{lof}{\select@language{ngerman}}
\@writefile{lot}{\select@language{ngerman}}
\@writefile{toc}{\contentsline {section}{Abbildungsverzeichnis}{iii}{section*.3}}
\@writefile{toc}{\contentsline {section}{Tabellenverzeichnis}{iii}{section*.4}}
\@writefile{toc}{\contentsline {section}{Abk\IeC {\"u}rzungsverzeichnis}{iv}{section*.5}}
\@writefile{toc}{\contentsline {section}{\numberline {1}Einleitung}{1}{section.1}}
\@writefile{toc}{\contentsline {section}{\numberline {2}Problemstellung}{1}{section.2}}
\@writefile{lof}{\contentsline {figure}{\numberline {1}{\ignorespaces Schema zur Zuordnung von Studenten zu den Instituten\relax }}{2}{figure.caption.7}}
\@writefile{toc}{\contentsline {section}{\numberline {3}Entwicklung des mathematisches Modells}{2}{section.3}}
\@writefile{toc}{\contentsline {subsection}{\numberline {3.1}Modellannahmen}{2}{subsection.3.1}}
\@writefile{toc}{\contentsline {subsection}{\numberline {3.2}Notation und Optimierungsmodell}{2}{subsection.3.2}}
\newlabel{Zuordnung}{{1}{3}{Notation und Optimierungsmodell}{equation.3.1}{}}
\newlabel{Bedienung}{{2}{3}{Notation und Optimierungsmodell}{equation.3.2}{}}
\@writefile{toc}{\contentsline {section}{\numberline {4}Entwicklung der Anwendung}{3}{section.4}}
\@writefile{toc}{\contentsline {subsection}{\numberline {4.1}Beschreibung der Web-Applikation}{3}{subsection.4.1}}
\@writefile{toc}{\contentsline {subsubsection}{\numberline {4.1.1}Start der Oberfl\IeC {\"a}che}{3}{subsubsection.4.1.1}}
\@writefile{lof}{\contentsline {figure}{\numberline {2}{\ignorespaces Startseite der Anwendungsoberfl\IeC {\"a}che\relax }}{4}{figure.caption.8}}
\providecommand*\caption@xref[2]{\@setref\relax\@undefined{#1}}
\newlabel{fig:Start}{{2}{4}{Startseite der Anwendungsoberfläche\relax }{figure.caption.8}{}}
\@writefile{lol}{\contentsline {lstlisting}{\numberline {1}{Erstellung der Login-Seite} }{4}{lstlisting.1}}
\newlabel{lst:login}{{1}{4}{Start der Oberfläche}{lstlisting.1}{}}
\@writefile{lof}{\contentsline {figure}{\numberline {3}{\ignorespaces Seite zur Registrierung\relax }}{6}{figure.caption.9}}
\newlabel{fig:Reg}{{3}{6}{Seite zur Registrierung\relax }{figure.caption.9}{}}
\@writefile{lof}{\contentsline {figure}{\numberline {4}{\ignorespaces Hinweise bei der Registrierung\relax }}{6}{figure.caption.10}}
\newlabel{fig:Reg2}{{4}{6}{Hinweise bei der Registrierung\relax }{figure.caption.10}{}}
\@writefile{toc}{\contentsline {subsubsection}{\numberline {4.1.2}Aufbau der Web-Applikation}{7}{subsubsection.4.1.2}}
\@writefile{lof}{\contentsline {figure}{\numberline {5}{\ignorespaces Home-Seite des Administrators\relax }}{7}{figure.caption.11}}
\newlabel{fig:Admin}{{5}{7}{Home-Seite des Administrators\relax }{figure.caption.11}{}}
\@writefile{lol}{\contentsline {lstlisting}{\numberline {2}{Erstellung der Home-Seite des Administrators} }{7}{lstlisting.2}}
\newlabel{lst:adho}{{2}{7}{Aufbau der Web-Applikation}{lstlisting.2}{}}
\@writefile{lof}{\contentsline {figure}{\numberline {6}{\ignorespaces Verwaltungsseite f\IeC {\"u}r die Institute\relax }}{8}{figure.caption.12}}
\newlabel{fig:Sites}{{6}{8}{Verwaltungsseite für die Institute\relax }{figure.caption.12}{}}
\@writefile{lol}{\contentsline {lstlisting}{\numberline {3}{Auflistung der Institute in tabellarischer Form} }{8}{lstlisting.3}}
\newlabel{lst:JQ}{{3}{8}{Aufbau der Web-Applikation}{lstlisting.3}{}}
\@writefile{lol}{\contentsline {lstlisting}{\numberline {4}{Validierung der eingetragenen Zahlen} }{9}{lstlisting.4}}
\newlabel{lst:Zahlen}{{4}{9}{Aufbau der Web-Applikation}{lstlisting.4}{}}
\@writefile{lof}{\contentsline {figure}{\numberline {7}{\ignorespaces Home-Seite der Studenten\relax }}{10}{figure.caption.13}}
\newlabel{fig:SitesS}{{7}{10}{Home-Seite der Studenten\relax }{figure.caption.13}{}}
\@writefile{lol}{\contentsline {lstlisting}{\numberline {5}{Home-Seite der Studenten} }{10}{lstlisting.5}}
\newlabel{lst:Zahlen}{{5}{10}{Aufbau der Web-Applikation}{lstlisting.5}{}}
\@writefile{lof}{\contentsline {figure}{\numberline {8}{\ignorespaces Seite zur Eingabe der Pr\IeC {\"a}ferenzen durch Studenten\relax }}{11}{figure.caption.14}}
\newlabel{fig:SitesP}{{8}{11}{Seite zur Eingabe der Präferenzen durch Studenten\relax }{figure.caption.14}{}}
\@writefile{lof}{\contentsline {figure}{\numberline {9}{\ignorespaces \IeC {\"U}bersicht der Institute\relax }}{12}{figure.caption.15}}
\newlabel{fig:Institute}{{9}{12}{Übersicht der Institute\relax }{figure.caption.15}{}}
\@writefile{toc}{\contentsline {subsubsection}{\numberline {4.1.3}Grundlegende Funktionen}{12}{subsubsection.4.1.3}}
\@writefile{lol}{\contentsline {lstlisting}{\numberline {6}{Erstellen eines Benutzers bei Registrierung} }{12}{lstlisting.6}}
\newlabel{lst:UserModel}{{6}{13}{Grundlegende Funktionen}{lstlisting.6}{}}
\@writefile{lol}{\contentsline {lstlisting}{\numberline {7}{Ausgabe der unbearbeiteten Pr\IeC {\"a}ferenz-Profile} }{13}{lstlisting.7}}
\newlabel{lst:UserModel}{{7}{13}{Grundlegende Funktionen}{lstlisting.7}{}}
\@writefile{lol}{\contentsline {lstlisting}{\numberline {8}{Modellierung von \emph  {show}} }{14}{lstlisting.8}}
\newlabel{lst:show}{{8}{14}{Grundlegende Funktionen}{lstlisting.8}{}}
\@writefile{lol}{\contentsline {lstlisting}{\numberline {9}{L\IeC {\"o}schen von Benutzern} }{14}{lstlisting.9}}
\newlabel{lst:destroy}{{9}{14}{Grundlegende Funktionen}{lstlisting.9}{}}
\@writefile{lof}{\contentsline {figure}{\numberline {10}{\ignorespaces Benutzerverwaltung\relax }}{15}{figure.caption.16}}
\newlabel{fig:l\IeC {\"o}schen}{{10}{15}{Benutzerverwaltung\relax }{figure.caption.16}{}}
\@writefile{toc}{\contentsline {subsection}{\numberline {4.2}GAMS-Implementierung und Systemarchitektur}{15}{subsection.4.2}}
\@writefile{toc}{\contentsline {subsubsection}{\numberline {4.2.1}Verkn\IeC {\"u}pfung von GAMS und der Web-Applikation}{15}{subsubsection.4.2.1}}
\@writefile{lol}{\contentsline {lstlisting}{\numberline {10}{Schreiben der Include-Datei} }{15}{lstlisting.10}}
\newlabel{lst:destroy}{{10}{15}{Verknüpfung von GAMS und der Web-Applikation}{lstlisting.10}{}}
\@writefile{lol}{\contentsline {lstlisting}{\numberline {11}{Schreiben der GAMS-Ouput-Datei} }{16}{lstlisting.11}}
\newlabel{lst:loop}{{11}{17}{Verknüpfung von GAMS und der Web-Applikation}{lstlisting.11}{}}
\@writefile{lol}{\contentsline {lstlisting}{\numberline {12}{Ausschnitt aus der GAMS-Ouput-Datei} }{17}{lstlisting.12}}
\newlabel{lst:ausch}{{12}{17}{Verknüpfung von GAMS und der Web-Applikation}{lstlisting.12}{}}
\@writefile{lol}{\contentsline {lstlisting}{\numberline {13}{Einlesen des GAMS-Output} }{17}{lstlisting.13}}
\newlabel{lst:linematch}{{13}{17}{Verknüpfung von GAMS und der Web-Applikation}{lstlisting.13}{}}
\@writefile{lol}{\contentsline {lstlisting}{\numberline {14}{Zur\IeC {\"u}cksetzen des Systems} }{18}{lstlisting.14}}
\newlabel{lst:delzu}{{14}{18}{Verknüpfung von GAMS und der Web-Applikation}{lstlisting.14}{}}
\@writefile{toc}{\contentsline {subsubsection}{\numberline {4.2.2}Datenbankmodell}{18}{subsubsection.4.2.2}}
\@writefile{lol}{\contentsline {lstlisting}{\numberline {15}{UserModel} }{19}{lstlisting.15}}
\newlabel{lst:user}{{15}{19}{Datenbankmodell}{lstlisting.15}{}}
\@writefile{lol}{\contentsline {lstlisting}{\numberline {16}{PreferencesiteModel} }{19}{lstlisting.16}}
\newlabel{lst:preferencesite}{{16}{19}{Datenbankmodell}{lstlisting.16}{}}
\@writefile{lot}{\contentsline {table}{\numberline {1}{\ignorespaces Wichtige Eintr\IeC {\"a}ge des UserModel\relax }}{20}{table.caption.17}}
\@writefile{lot}{\contentsline {table}{\numberline {2}{\ignorespaces PreferencesiteModel\relax }}{20}{table.caption.18}}
\@writefile{lol}{\contentsline {lstlisting}{\numberline {17}{TranslinksModel} }{20}{lstlisting.17}}
\newlabel{lst:translink}{{17}{20}{Datenbankmodell}{lstlisting.17}{}}
\@writefile{lot}{\contentsline {table}{\numberline {3}{\ignorespaces SiteModel\relax }}{20}{table.caption.19}}
\@writefile{lot}{\contentsline {table}{\numberline {4}{\ignorespaces TranslinkModel\relax }}{21}{table.caption.20}}
\@writefile{toc}{\contentsline {section}{\numberline {5}Test-Suit}{21}{section.5}}
\@writefile{lol}{\contentsline {lstlisting}{\numberline {18}{Test-Helper} }{21}{lstlisting.18}}
\newlabel{lst:helper}{{18}{21}{Test-Suit}{lstlisting.18}{}}
\@writefile{lol}{\contentsline {lstlisting}{\numberline {19}{Matrikelnummer-Test} }{21}{lstlisting.19}}
\newlabel{lst:mattest}{{19}{21}{Test-Suit}{lstlisting.19}{}}
\@writefile{lol}{\contentsline {lstlisting}{\numberline {20}{Site-Test} }{22}{lstlisting.20}}
\newlabel{lst:sitetest}{{20}{22}{Test-Suit}{lstlisting.20}{}}
\@writefile{toc}{\contentsline {section}{\numberline {6}Exemplarischer Workflow}{23}{section.6}}
\@writefile{lol}{\contentsline {lstlisting}{\numberline {21}{Seeds} }{23}{lstlisting.21}}
\newlabel{lst:seed}{{21}{23}{Exemplarischer Workflow}{lstlisting.21}{}}
\@writefile{lof}{\contentsline {figure}{\numberline {11}{\ignorespaces Unterst\IeC {\"u}tzung bei EIngabe der Pr\IeC {\"a}ferenzen\relax }}{24}{figure.caption.21}}
\newlabel{fig:hilfe}{{11}{24}{Unterstützung bei EIngabe der Präferenzen\relax }{figure.caption.21}{}}
\@writefile{toc}{\contentsline {section}{\numberline {7}Limitationen und Handlungsempfehlungen}{26}{section.7}}
\@writefile{toc}{\contentsline {section}{\numberline {8}Fazit und Ausblick}{28}{section.8}}
\bibdata{Literaturverzeichnis}
